10  2   0   0   0   0   0   3   1
3   8   1   0   0   0   1   -5  -2
0   1   7   4   0   0   1   4   3      
0   0   5   12  6   0   0   8   -4
0   0   0   4   9   3   0   2   5
0   0   0   0   2   11  5   7   -6
0   0   0   0   0   1   8   -9  7
0   0   0   0   0   0   0   3   -8

 
